pl8/mips5_wave3.vcd
$date
	Mon Feb  3 03:34:25 2025
$end
$version
	Icarus Verilog
$end
$timescale
	1s
$end
$scope module MIPS5_tb $end
$scope module dut $end
$var wire 1 ! clk $end
$var wire 1 " reset $end
$var wire 1 # zero $end
$var wire 5 $ writeadr [4:0] $end
$var wire 1 % taken $end
$var wire 32 & signExtended_shiftleft2 [31:0] $end
$var wire 32 ' signExtended [31:0] $end
$var wire 32 ( rt_or_signExtended [31:0] $end
$var wire 1 ) overflow $end
$var wire 32 * mr_mc_rdata [31:0] $end
$var wire 1 + mr_mc_memready $end
$var wire 32 , inputA [31:0] $end
$var wire 32 - forwarded_RD2 [31:0] $end
$var wire 1 . equal $end
$var wire 8 / control_signals [7:0] $end
$var wire 32 0 ac_mr_wdata [31:0] $end
$var wire 1 1 ac_mr_memwrite $end
$var wire 32 2 ac_mr_addr [31:0] $end
$var wire 1 3 ZeroExtend $end
$var wire 32 4 WriteData_f [31:0] $end
$var wire 32 5 RegData2 [31:0] $end
$var wire 32 6 RegData1 [31:0] $end
$var wire 1 7 PC_stall $end
$var wire 32 8 PC_Plus4 [31:0] $end
$var wire 32 9 PC [31:0] $end
$var wire 32 : NextPC [31:0] $end
$var wire 1 ; MEM_WB_RegWrite $end
$var wire 32 < MEM_WB_ReadData [31:0] $end
$var wire 5 = MEM_WB_Rd [4:0] $end
$var wire 1 > MEM_WB_MemToReg $end
$var wire 32 ? MEM_WB_ALUResult [31:0] $end
$var wire 32 @ Instruction [31:0] $end
$var wire 1 A IF_ID_stall $end
$var wire 32 B IF_ID_PC_Plus4 [31:0] $end
$var wire 32 C IF_ID_Instruction [31:0] $end
$var wire 6 D ID_EX_func [5:0] $end
$var wire 32 E ID_EX_SignExtended [31:0] $end
$var wire 5 F ID_EX_Rt [4:0] $end
$var wire 5 G ID_EX_Rs [4:0] $end
$var wire 1 H ID_EX_RegWrite $end
$var wire 1 I ID_EX_RegDst $end
$var wire 5 J ID_EX_Rd [4:0] $end
$var wire 32 K ID_EX_RD2 [31:0] $end
$var wire 32 L ID_EX_RD1 [31:0] $end
$var wire 1 M ID_EX_MemWrite $end
$var wire 1 N ID_EX_MemToReg $end
$var wire 1 O ID_EX_MemRead $end
$var wire 1 P ID_EX_ALUSrc $end
$var wire 2 Q ID_EX_ALUOp [1:0] $end
$var wire 2 R ForwardB [1:0] $end
$var wire 2 S ForwardA [1:0] $end
$var wire 1 T EX_MEM_RegWrite $end
$var wire 5 U EX_MEM_Rd [4:0] $end
$var wire 32 V EX_MEM_RD2 [31:0] $end
$var wire 1 W EX_MEM_MemWrite $end
$var wire 1 X EX_MEM_MemToReg $end
$var wire 1 Y EX_MEM_MemRead $end
$var wire 32 Z EX_MEM_ALUResult [31:0] $end
$var wire 8 [ ControlMuxToRegister [7:0] $end
$var wire 1 \ ControlMux $end
$var wire 32 ] Branch_Address [31:0] $end
$var wire 1 ^ Branch $end
$var wire 32 _ ALUResult [31:0] $end
$var wire 4 ` ALUControl [3:0] $end
$scope module A $end
$var wire 2 a sel [1:0] $end
$var wire 32 b maininput [31:0] $end
$var wire 32 c fw2 [31:0] $end
$var wire 32 d fw1 [31:0] $end
$var reg 32 e result [31:0] $end
$upscope $end
$scope module B_forwarding $end
$var wire 2 f sel [1:0] $end
$var wire 32 g maininput [31:0] $end
$var wire 32 h fw2 [31:0] $end
$var wire 32 i fw1 [31:0] $end
$var reg 32 j result [31:0] $end
$upscope $end
$scope module Branch_result $end
$var wire 1 % result $end
$var wire 1 . b $end
$var wire 1 ^ a $end
$upscope $end
$scope module EX_MEM_reg $end
$var wire 1 ! clk $end
$var wire 1 " reset $end
$var wire 1 H RegWrite $end
$var wire 5 k Rd [4:0] $end
$var wire 32 l RD2 [31:0] $end
$var wire 1 M MemWrite $end
$var wire 1 N MemToReg $end
$var wire 1 O MemRead $end
$var wire 32 m ALUResult [31:0] $end
$var reg 32 n ALUResult_out [31:0] $end
$var reg 1 Y MemRead_out $end
$var reg 1 X MemToReg_out $end
$var reg 1 W MemWrite_out $end
$var reg 32 o RD2_out [31:0] $end
$var reg 5 p Rd_out [4:0] $end
$var reg 1 T RegWrite_out $end
$upscope $end
$scope module ac_mr_reg $end
$var wire 32 q addr_in [31:0] $end
$var wire 1 ! clk $end
$var wire 1 W mem_write_in $end
$var wire 1 " reset $end
$var wire 32 r write_data_in [31:0] $end
$var reg 32 s addr_out [31:0] $end
$var reg 1 1 mem_write_out $end
$var reg 32 t write_data_out [31:0] $end
$upscope $end
$scope module alu $end
$var wire 32 u A [31:0] $end
$var wire 32 v B [31:0] $end
$var wire 4 w ALUControl [3:0] $end
$var reg 1 ) Overflow $end
$var reg 32 x Result [31:0] $end
$var reg 1 # Zero $end
$var reg 32 y signed_A [31:0] $end
$var reg 32 z signed_B [31:0] $end
$var reg 32 { signed_Result [31:0] $end
$upscope $end
$scope module alu_control $end
$var wire 6 | Funct [5:0] $end
$var wire 2 } ALUOp [1:0] $end
$var reg 4 ~ ALUControl [3:0] $end
$upscope $end
$scope module alu_src $end
$var wire 32 !" input0 [31:0] $end
$var wire 1 P sel $end
$var wire 32 "" input1 [31:0] $end
$var reg 32 #" result [31:0] $end
$upscope $end
$scope module branch_address_calculator $end
$var wire 32 $" result [31:0] $end
$var wire 32 %" input2 [31:0] $end
$var wire 32 &" input1 [31:0] $end
$upscope $end
$scope module control_mux $end
$var wire 8 '" control_in [7:0] $end
$var wire 1 \ stall $end
$var wire 8 (" control_out [7:0] $end
$upscope $end
$scope module controller $end
$var wire 6 )" opcode [5:0] $end
$var reg 2 *" ALUOp [1:0] $end
$var reg 1 +" ALUSrc $end
$var reg 1 ^ Branch $end
$var reg 1 ," MemRead $end
$var reg 1 -" MemToReg $end
$var reg 1 ." MemWrite $end
$var reg 1 /" RegDst $end
$var reg 1 0" RegWrite $end
$var reg 1 3 ZeroExtend $end
$upscope $end
$scope module forwarding_unit $end
$var wire 5 1" EX_MEM_Rd [4:0] $end
$var wire 1 T EX_MEM_RegWrite $end
$var wire 1 ; MEM_WB_RegWrite $end
$var wire 5 2" MEM_WB_Rd [4:0] $end
$var wire 5 3" ID_EX_Rt [4:0] $end
$var wire 5 4" ID_EX_Rs [4:0] $end
$var wire 1 H ID_EX_RegWrite $end
$var reg 2 5" ForwardA [1:0] $end
$var reg 2 6" ForwardB [1:0] $end
$upscope $end
$scope module hazard_detection $end
$var wire 5 7" IF_ID_Rs [4:0] $end
$var wire 5 8" IF_ID_Rt [4:0] $end
$var wire 5 9" ID_EX_Rt [4:0] $end
$var wire 1 O ID_EX_MemRead $end
$var reg 1 \ ControlMux $end
$var reg 1 A IF_ID_stall $end
$var reg 1 7 PC_stall $end
$upscope $end
$scope module id_ex_register $end
$var wire 2 :" ALUOp [1:0] $end
$var wire 1 ;" ALUSrc $end
$var wire 1 <" MemRead $end
$var wire 1 =" MemToReg $end
$var wire 1 >" MemWrite $end
$var wire 5 ?" Rd [4:0] $end
$var wire 1 @" RegDst $end
$var wire 1 A" RegWrite $end
$var wire 5 B" Rs [4:0] $end
$var wire 5 C" Rt [4:0] $end
$var wire 1 ! clk $end
$var wire 6 D" funct [5:0] $end
$var wire 1 " reset $end
$var wire 32 E" SignExtend [31:0] $end
$var wire 32 F" RD2 [31:0] $end
$var wire 32 G" RD1 [31:0] $end
$var reg 2 H" ALUOp_out [1:0] $end
$var reg 1 P ALUSrc_out $end
$var reg 1 O MemRead_out $end
$var reg 1 N MemToReg_out $end
$var reg 1 M MemWrite_out $end
$var reg 32 I" RD1_out [31:0] $end
$var reg 32 J" RD2_out [31:0] $end
$var reg 5 K" Rd_out [4:0] $end
$var reg 1 I RegDst_out $end
$var reg 1 H RegWrite_out $end
$var reg 5 L" Rs_out [4:0] $end
$var reg 5 M" Rt_out [4:0] $end
$var reg 32 N" SignExtend_out [31:0] $end
$var reg 6 O" funct_out [5:0] $end
$upscope $end
$scope module if_id_register $end
$var wire 1 ! clk $end
$var wire 1 % flush $end
$var wire 1 " reset $end
$var wire 1 A stall $end
$var wire 32 P" PC_Plus4 [31:0] $end
$var wire 32 Q" Instruction [31:0] $end
$var reg 32 R" Instruction_out [31:0] $end
$var reg 32 S" PC_Plus4_out [31:0] $end
$upscope $end
$scope module instruction_memory $end
$var wire 1 ! clk $end
$var wire 32 T" PC [31:0] $end
$var reg 32 U" instruction [31:0] $end
$upscope $end
$scope module mem_wb_reg $end
$var wire 32 V" ALUResult [31:0] $end
$var wire 1 X MemtoReg $end
$var wire 5 W" Rd [4:0] $end
$var wire 1 T RegWrite $end
$var wire 1 ! clk $end
$var wire 1 " reset $end
$var wire 1 + ready $end
$var wire 32 X" ReadData [31:0] $end
$var reg 32 Y" ALUResult_out [31:0] $end
$var reg 1 > MemtoReg_out $end
$var reg 5 Z" Rd_out [4:0] $end
$var reg 32 [" ReadData_out [31:0] $end
$var reg 1 ; RegWrite_out $end
$upscope $end
$scope module memory $end
$var wire 32 \" addr_in [31:0] $end
$var wire 1 ! clk $end
$var wire 1 1 mem_write_in $end
$var wire 1 " reset $end
$var wire 32 ]" write_data_in [31:0] $end
$var reg 32 ^" addr_reg [31:0] $end
$var reg 1 + mem_ready $end
$var reg 1 _" mem_write_reg $end
$var reg 32 `" read_data_out [31:0] $end
$var reg 32 a" write_data_out [31:0] $end
$var reg 32 b" write_data_reg [31:0] $end
$var reg 1 c" write_done $end
$scope begin $ivl_for_loop1 $end
$var integer 32 d" i [31:0] $end
$upscope $end
$upscope $end
$scope module mux2to1 $end
$var wire 32 e" input0 [31:0] $end
$var wire 32 f" input1 [31:0] $end
$var wire 1 > sel $end
$var reg 32 g" result [31:0] $end
$upscope $end
$scope module mux_2x1_32 $end
$var wire 32 h" input1 [31:0] $end
$var wire 1 % sel $end
$var wire 32 i" input0 [31:0] $end
$var reg 32 j" result [31:0] $end
$upscope $end
$scope module pc $end
$var wire 32 k" PC_IN [31:0] $end
$var wire 1 ! clk $end
$var wire 1 " reset $end
$var wire 1 7 stall $end
$var reg 32 l" PC_OUT [31:0] $end
$upscope $end
$scope module pc_adder $end
$var wire 32 m" PC_in [31:0] $end
$var wire 32 n" PC_out [31:0] $end
$upscope $end
$scope module register_destination $end
$var wire 5 o" input0 [4:0] $end
$var wire 5 p" input1 [4:0] $end
$var wire 1 I sel $end
$var reg 5 q" result [4:0] $end
$upscope $end
$scope module register_file $end
$var wire 1 ; RegWrite $end
$var wire 32 r" WriteData [31:0] $end
$var wire 5 s" adr1 [4:0] $end
$var wire 5 t" adr2 [4:0] $end
$var wire 1 ! clk $end
$var wire 1 " reset $end
$var wire 5 u" writeadr [4:0] $end
$var reg 32 v" ReadData1 [31:0] $end
$var reg 32 w" ReadData2 [31:0] $end
$upscope $end
$scope module rs_rt_comparator $end
$var wire 32 x" A [31:0] $end
$var wire 32 y" B [31:0] $end
$var wire 1 . equal $end
$upscope $end
$scope module shift_left_2 $end
$var wire 32 z" out [31:0] $end
$var wire 32 {" in [31:0] $end
$upscope $end
$scope module sign_extend $end
$var wire 1 3 ZeroExtend $end
$var wire 16 |" in [15:0] $end
$var reg 32 }" out [31:0] $end
$upscope $end
$upscope $end
$upscope $end
$enddefinitions $end
$comment Show the parameter values. $end
$dumpall
$end
#0
$dumpvars
b0 }"
b0 |"
b0 {"
b0 z"
b0 y"
b0 x"
b0 w"
b0 v"
b0 u"
b0 t"
b0 s"
b0 r"
b0 q"
b0 p"
b0 o"
b100 n"
b0 m"
b0 l"
b100 k"
b100 j"
b100 i"
b0 h"
b0 g"
b0 f"
b0 e"
b11111111 d"
xc"
bx b"
bx a"
bx `"
x_"
bx ^"
b0 ]"
b0 \"
b0 ["
b0 Z"
b0 Y"
bx X"
b0 W"
b0 V"
bx U"
b0 T"
b0 S"
b0 R"
bx Q"
b100 P"
b0 O"
b0 N"
b0 M"
b0 L"
b0 K"
b0 J"
b0 I"
b0 H"
b0 G"
b0 F"
b0 E"
b0 D"
b0 C"
b0 B"
1A"
1@"
b0 ?"
0>"
0="
0<"
0;"
b10 :"
b0 9"
b0 8"
b0 7"
b0 6"
b0 5"
b0 4"
b0 3"
b0 2"
b0 1"
10"
1/"
0."
0-"
0,"
0+"
b10 *"
b0 )"
b10010010 ("
b10010010 '"
b0 &"
b0 %"
b0 $"
b0 #"
b0 ""
b0 !"
b10 ~
b0 }
b0 |
b0 {
b0 z
b0 y
b0 x
b10 w
b0 v
b0 u
b0 t
b0 s
b0 r
b0 q
b0 p
b0 o
b0 n
b0 m
b0 l
b0 k
b0 j
b0 i
b0 h
b0 g
b0 f
b0 e
b0 d
b0 c
b0 b
b0 a
b10 `
b0 _
0^
b0 ]
0\
b10010010 [
b0 Z
0Y
0X
0W
b0 V
b0 U
0T
b0 S
b0 R
b0 Q
0P
0O
0N
0M
b0 L
b0 K
b0 J
0I
0H
b0 G
b0 F
b0 E
b0 D
b0 C
b0 B
0A
bx @
b0 ?
0>
b0 =
b0 <
0;
b100 :
b0 9
b100 8
07
b0 6
b0 5
b0 4
03
b0 2
01
b0 0
b10010010 /
1.
b0 -
b0 ,
x+
bx *
0)
b0 (
b0 '
b0 &
0%
b0 $
1#
1"
0!
$end
#5
b10001100000000000000000000000000 @
b10001100000000000000000000000000 Q"
b10001100000000000000000000000000 U"
0_"
b0 b"
b0 ^"
1+
0c"
1!
#10
0!
#15
0+
b0 *
b0 X"
b0 `"
1!
#20
0!
0"
#25
b1000 :
b1000 j"
b1000 k"
b0 :"
1="
1<"
1;"
0@"
b1111000 [
b1111000 ("
b0 *"
1,"
1-"
1+"
b1111000 /
b1111000 '"
0/"
b1111 `
b1111 w
b1111 ~
b100011 )"
1H
b10 Q
b10 }
b10 H"
1I
b10001100000000000000000000000000 C
b10001100000000000000000000000000 R"
b100 ]
b100 $"
b100 h"
b100 B
b100 &"
b100 S"
b1000 8
b1000 P"
b1000 i"
b1000 n"
b100 9
b100 T"
b100 l"
b100 m"
1+
1!
#30
0!
#35
b1100 :
b1100 j"
b1100 k"
0A"
0="
0<"
0;"
b0 [
b0 ("
1\
1A
17
b10 `
b10 w
b10 ~
b1100 8
b1100 P"
b1100 i"
b1100 n"
b1000 9
b1000 T"
b1000 l"
b1000 m"
b1000 ]
b1000 $"
b1000 h"
b1000 B
b1000 &"
b1000 S"
1N
1O
1P
b0 Q
b0 }
b0 H"
0I
1T
0+
b10001100000000010000000000000100 @
b10001100000000010000000000000100 Q"
b10001100000000010000000000000100 U"
1!
#40
0!
#45
1A"
1="
1<"
1;"
b1111000 [
b1111000 ("
0\
0A
07
1;
1X
1Y
0H
0N
0O
0P
b10001000000100000 @
b10001000000100000 Q"
b10001000000100000 U"
1+
1!
#50
0!
#55
0.
b1 5
b1 F"
b1 w"
b1 y"
b10000 :
b10000 j"
b10000 k"
b100000010000000 &
b100000010000000 %"
b100000010000000 z"
0A"
0="
0<"
0;"
b1000000100000 '
b1000000100000 E"
b1000000100000 {"
b1000000100000 }"
b10 *"
0,"
0-"
0+"
b10010010 /
b10010010 '"
1/"
b0 [
b0 ("
b100000 D"
b10 ?"
b1 C"
b1 8"
b1000000100000 |"
b0 )"
b1 t"
1\
1A
17
b10000 8
b10000 P"
b10000 i"
b10000 n"
b1100 9
b1100 T"
b1100 l"
b1100 m"
b10001000000100000 C
b10001000000100000 R"
b100000010001100 ]
b100000010001100 $"
b100000010001100 h"
b1100 B
b1100 &"
b1100 S"
1H
1N
1O
1P
0T
0X
0Y
1>
0+
1!
#60
0!
#65
0#
b1 _
b1 m
b1 x
b1 {
b1 z
b1 (
b1 v
b1 #"
b1 $
b1 k
b1 q"
b10 :"
1A"
1@"
b10010010 [
b10010010 ("
b1 -
b1 j
b1 !"
0\
0A
07
0>
0;
1T
1X
1Y
b100000 D
b100000 |
b100000 O"
b10 J
b10 K"
b10 p"
b1 F
b1 3"
b1 9"
b1 M"
b1 o"
b1000000100000 E
b1000000100000 ""
b1000000100000 N"
b1 K
b1 g
b1 l
b1 J"
0H
0N
0O
0P
b1000100001100000100000 @
b1000100001100000100000 Q"
b1000100001100000100000 U"
1+
1!
#70
0!
#75
b1 6
b1 G"
b1 v"
b1 x"
0.
b0 5
b0 F"
b0 w"
b0 y"
b10100 :
b10100 j"
b10100 k"
b10 $
b10 k
b10 q"
b110000010000000 &
b110000010000000 %"
b110000010000000 z"
b1100000100000 '
b1100000100000 E"
b1100000100000 {"
b1100000100000 }"
b11 ?"
b10 C"
b1 B"
b10 8"
b1 7"
b1100000100000 |"
b10 t"
b1 s"
b10100 8
b10100 P"
b10100 i"
b10100 n"
b10000 9
b10000 T"
b10000 l"
b10000 m"
b1000100001100000100000 C
b1000100001100000100000 R"
b110000010010000 ]
b110000010010000 $"
b110000010010000 h"
b10000 B
b10000 &"
b10000 S"
1H
b10 Q
b10 }
b10 H"
1I
b1 U
b1 p
b1 1"
b1 W"
b1 V
b1 o
b1 r
b1 Z
b1 d
b1 i
b1 n
b1 q
b1 V"
0T
0X
0Y
1>
1;
0+
1!
#80
0!
#85
b1 4
b1 c
b1 h
b1 g"
b1 r"
b11 $
b11 k
b11 q"
b1 (
b1 v
b1 #"
b11000 :
b11000 j"
b11000 k"
b10 _
b10 m
b10 x
b10 {
b1 y
b10 R
b10 f
b10 6"
b1 -
b1 j
b1 !"
b1 ,
b1 e
b1 u
b1 =
b1 2"
b1 Z"
b1 u"
b1 ?
b1 Y"
b1 e"
0>
0;
b1 0
b1 t
b1 ]"
b1 2
b1 s
b1 \"
b10 U
b10 p
b10 1"
b10 W"
1T
b11 J
b11 K"
b11 p"
b10 F
b10 3"
b10 9"
b10 M"
b10 o"
b1 G
b1 4"
b1 L"
b1100000100000 E
b1100000100000 ""
b1100000100000 N"
b0 K
b0 g
b0 l
b0 J"
b1 L
b1 b
b1 I"
b110000010010100 ]
b110000010010100 $"
b110000010010100 h"
b10100 B
b10100 &"
b10100 S"
b11000 8
b11000 P"
b11000 i"
b11000 n"
b10100 9
b10100 T"
b10100 l"
b10100 m"
b10000110010000000100000 @
b10000110010000000100000 Q"
b10000110010000000100000 U"
1+
1!
#90
0!
#95
1.
b0 6
b0 G"
b0 v"
b0 x"
b11100 :
b11100 j"
b11100 k"
b1000000010000000 &
b1000000010000000 %"
b1000000010000000 z"
b10000000100000 '
b10000000100000 E"
b10000000100000 {"
b10000000100000 }"
b100 ?"
b11 C"
b10 B"
b11 8"
b10 7"
b10000000100000 |"
b11 t"
b10 s"
b1 R
b1 f
b1 6"
b11100 8
b11100 P"
b11100 i"
b11100 n"
b11000 9
b11000 T"
b11000 l"
b11000 m"
b10000110010000000100000 C
b10000110010000000100000 R"
b1000000010011000 ]
b1000000010011000 $"
b1000000010011000 h"
b11000 B
b11000 &"
b11000 S"
b11 U
b11 p
b11 1"
b11 W"
b0 V
b0 o
b0 r
b10 Z
b10 d
b10 i
b10 n
b10 q
b10 V"
b10 =
b10 2"
b10 Z"
b10 u"
1;
0+
b1 b"
b1 ^"
b11001000010100000100000 @
b11001000010100000100000 Q"
b11001000010100000100000 U"
1!
#100
0.
b1 6
b1 G"
b1 v"
b1 x"
0!
#105
b11 _
b11 m
b11 x
b11 {
b10 z
b10 (
b10 v
b10 #"
1.
b0 6
b0 G"
b0 v"
b0 x"
b10 4
b10 c
b10 h
b10 g"
b10 r"
b100 $
b100 k
b100 q"
b100000 :
b100000 j"
b100000 k"
b1010000010000000 &
b1010000010000000 %"
b1010000010000000 z"
b10 -
b10 j
b10 !"
b10100000100000 '
b10100000100000 E"
b10100000100000 {"
b10100000100000 }"
b10 R
b10 f
b10 6"
b101 ?"
b100 C"
b11 B"
b100 8"
b11 7"
b10100000100000 |"
b100 t"
b11 s"
b11 =
b11 2"
b11 Z"
b11 u"
b10 ?
b10 Y"
b10 e"
b0 0
b0 t
b0 ]"
b10 2
b10 s
b10 \"
b100 J
b100 K"
b100 p"
b11 F
b11 3"
b11 9"
b11 M"
b11 o"
b10 G
b10 4"
b10 L"
b10000000100000 E
b10000000100000 ""
b10000000100000 N"
b11001000010100000100000 C
b11001000010100000100000 R"
b1010000010011100 ]
b1010000010011100 $"
b1010000010011100 h"
b11100 B
b11100 &"
b11100 S"
b100000 8
b100000 P"
b100000 i"
b100000 n"
b11100 9
b11100 T"
b11100 l"
b11100 m"
b100001010011000000100000 @
b100001010011000000100000 Q"
b100001010011000000100000 U"
1+
bx *
bx X"
bx `"
1!
#110
0.
b10 6
b10 G"
b10 v"
b10 x"
0!
#115
b11 z
1.
b0 6
b0 G"
b0 v"
b0 x"
b100100 :
b100100 j"
b100100 k"
b101 $
b101 k
b101 q"
b11 (
b11 v
b11 #"
b1100000010000000 &
b1100000010000000 %"
b1100000010000000 z"
b11000000100000 '
b11000000100000 E"
b11000000100000 {"
b11000000100000 }"
b101 _
b101 m
b101 x
b101 {
b10 y
b110 ?"
b101 C"
b100 B"
b101 8"
b100 7"
b11000000100000 |"
b101 t"
b100 s"
b1 S
b1 a
b1 5"
b10 ,
b10 e
b10 u
b11 -
b11 j
b11 !"
b100100 8
b100100 P"
b100100 i"
b100100 n"
b100000 9
b100000 T"
b100000 l"
b100000 m"
b100001010011000000100000 C
b100001010011000000100000 R"
b1100000010100000 ]
b1100000010100000 $"
b1100000010100000 h"
b100000 B
b100000 &"
b100000 S"
b101 J
b101 K"
b101 p"
b100 F
b100 3"
b100 9"
b100 M"
b100 o"
b11 G
b11 4"
b11 L"
b10100000100000 E
b10100000100000 ""
b10100000100000 N"
b10 L
b10 b
b10 I"
b100 U
b100 p
b100 1"
b100 W"
b11 Z
b11 d
b11 i
b11 n
b11 q
b11 V"
bx <
bx ["
bx f"
0+
b0 b"
b10 ^"
b101001100011100000100000 @
b101001100011100000100000 Q"
b101001100011100000100000 U"
1!
#120
0!
#125
b1000 _
b1000 m
b1000 x
b1000 {
b101 z
b11 y
b11 ,
b11 e
b11 u
b101 (
b101 v
b101 #"
b11 4
b11 c
b11 h
b11 g"
b11 r"
b110 $
b110 k
b110 q"
b101000 :
b101000 j"
b101000 k"
b1110000010000000 &
b1110000010000000 %"
b1110000010000000 z"
b11100000100000 '
b11100000100000 E"
b11100000100000 {"
b11100000100000 }"
b101 -
b101 j
b101 !"
b111 ?"
b110 C"
b101 B"
b110 8"
b101 7"
b11100000100000 |"
b110 t"
b101 s"
b100 =
b100 2"
b100 Z"
b100 u"
b11 ?
b11 Y"
b11 e"
b11 2
b11 s
b11 \"
b101 U
b101 p
b101 1"
b101 W"
b101 Z
b101 d
b101 i
b101 n
b101 q
b101 V"
b110 J
b110 K"
b110 p"
b101 F
b101 3"
b101 9"
b101 M"
b101 o"
b100 G
b100 4"
b100 L"
b11000000100000 E
b11000000100000 ""
b11000000100000 N"
b0 L
b0 b
b0 I"
b101001100011100000100000 C
b101001100011100000100000 R"
b1110000010100100 ]
b1110000010100100 $"
b1110000010100100 h"
b100100 B
b100100 &"
b100100 S"
b101000 8
b101000 P"
b101000 i"
b101000 n"
b100100 9
b100100 T"
b100100 l"
b100100 m"
b110001110100000000100000 @
b110001110100000000100000 Q"
b110001110100000000100000 U"
1+
b0 *
b0 X"
b0 `"
1!
#130
0!
#135
b1101 _
b1101 m
b1101 x
b1101 {
b1000 z
b101 y
b101 ,
b101 e
b101 u
b101100 :
b101100 j"
b101100 k"
b111 $
b111 k
b111 q"
b1000 (
b1000 v
b1000 #"
b101 4
b101 c
b101 h
b101 g"
b101 r"
b10000000010000000 &
b10000000010000000 %"
b10000000010000000 z"
b100000000100000 '
b100000000100000 E"
b100000000100000 {"
b100000000100000 }"
b1000 ?"
b111 C"
b110 B"
b111 8"
b110 7"
b100000000100000 |"
b111 t"
b110 s"
b1000 -
b1000 j
b1000 !"
b101100 8
b101100 P"
b101100 i"
b101100 n"
b101000 9
b101000 T"
b101000 l"
b101000 m"
b110001110100000000100000 C
b110001110100000000100000 R"
b10000000010101000 ]
b10000000010101000 $"
b10000000010101000 h"
b101000 B
b101000 &"
b101000 S"
b111 J
b111 K"
b111 p"
b110 F
b110 3"
b110 9"
b110 M"
b110 o"
b101 G
b101 4"
b101 L"
b11100000100000 E
b11100000100000 ""
b11100000100000 N"
b110 U
b110 p
b110 1"
b110 W"
b1000 Z
b1000 d
b1000 i
b1000 n
b1000 q
b1000 V"
b101 2
b101 s
b101 \"
b101 =
b101 2"
b101 Z"
b101 u"
b0 <
b0 ["
b0 f"
b101 ?
b101 Y"
b101 e"
0+
b11 ^"
b111010000100100000100000 @
b111010000100100000100000 Q"
b111010000100100000100000 U"
1!
#140
0!
#145
b10101 _
b10101 m
b10101 x
b10101 {
b1101 z
b1000 y
b1000 ,
b1000 e
b1000 u
b1101 (
b1101 v
b1101 #"
b1000 4
b1000 c
b1000 h
b1000 g"
b1000 r"
b1000 $
b1000 k
b1000 q"
b110000 :
b110000 j"
b110000 k"
b10010000010000000 &
b10010000010000000 %"
b10010000010000000 z"
b100100000100000 '
b100100000100000 E"
b100100000100000 {"
b100100000100000 }"
b1101 -
b1101 j
b1101 !"
b1001 ?"
b1000 C"
b111 B"
b1000 8"
b111 7"
b100100000100000 |"
b1000 t"
b111 s"
b110 =
b110 2"
b110 Z"
b110 u"
b1000 ?
b1000 Y"
b1000 e"
b1000 2
b1000 s
b1000 \"
b111 U
b111 p
b111 1"
b111 W"
b1101 Z
b1101 d
b1101 i
b1101 n
b1101 q
b1101 V"
b1000 J
b1000 K"
b1000 p"
b111 F
b111 3"
b111 9"
b111 M"
b111 o"
b110 G
b110 4"
b110 L"
b100000000100000 E
b100000000100000 ""
b100000000100000 N"
b111010000100100000100000 C
b111010000100100000100000 R"
b10010000010101100 ]
b10010000010101100 $"
b10010000010101100 h"
b101100 B
b101100 &"
b101100 S"
b110000 8
b110000 P"
b110000 i"
b110000 n"
b101100 9
b101100 T"
b101100 l"
b101100 m"
b1000010010101000000100000 @
b1000010010101000000100000 Q"
b1000010010101000000100000 U"
b101 ^"
1+
1!
#150
0!
#155
b100010 _
b100010 m
b100010 x
b100010 {
b10101 z
b1101 y
b1101 ,
b1101 e
b1101 u
b110100 :
b110100 j"
b110100 k"
b1001 $
b1001 k
b1001 q"
b10101 (
b10101 v
b10101 #"
b1101 4
b1101 c
b1101 h
b1101 g"
b1101 r"
b10100000010000000 &
b10100000010000000 %"
b10100000010000000 z"
b101000000100000 '
b101000000100000 E"
b101000000100000 {"
b101000000100000 }"
b1010 ?"
b1001 C"
b1000 B"
b1001 8"
b1000 7"
b101000000100000 |"
b1001 t"
b1000 s"
b10101 -
b10101 j
b10101 !"
b110100 8
b110100 P"
b110100 i"
b110100 n"
b110000 9
b110000 T"
b110000 l"
b110000 m"
b1000010010101000000100000 C
b1000010010101000000100000 R"
b10100000010110000 ]
b10100000010110000 $"
b10100000010110000 h"
b110000 B
b110000 &"
b110000 S"
b1001 J
b1001 K"
b1001 p"
b1000 F
b1000 3"
b1000 9"
b1000 M"
b1000 o"
b111 G
b111 4"
b111 L"
b100100000100000 E
b100100000100000 ""
b100100000100000 N"
b1000 U
b1000 p
b1000 1"
b1000 W"
b10101 Z
b10101 d
b10101 i
b10101 n
b10101 q
b10101 V"
b1101 2
b1101 s
b1101 \"
b111 =
b111 2"
b111 Z"
b111 u"
b1101 ?
b1101 Y"
b1101 e"
0+
b1000 ^"
b1001010100101100000100000 @
b1001010100101100000100000 Q"
b1001010100101100000100000 U"
1!
#160
0!
#165
b110111 _
b110111 m
b110111 x
b110111 {
b100010 z
b10101 y
b10101 ,
b10101 e
b10101 u
b100010 (
b100010 v
b100010 #"
b10101 4
b10101 c
b10101 h
b10101 g"
b10101 r"
b1010 $
b1010 k
b1010 q"
b111000 :
b111000 j"
b111000 k"
b10110000010000000 &
b10110000010000000 %"
b10110000010000000 z"
b101100000100000 '
b101100000100000 E"
b101100000100000 {"
b101100000100000 }"
b100010 -
b100010 j
b100010 !"
b1011 ?"
b1010 C"
b1001 B"
b1010 8"
b1001 7"
b101100000100000 |"
b1010 t"
b1001 s"
b1000 =
b1000 2"
b1000 Z"
b1000 u"
b10101 ?
b10101 Y"
b10101 e"
b10101 2
b10101 s
b10101 \"
b1001 U
b1001 p
b1001 1"
b1001 W"
b100010 Z
b100010 d
b100010 i
b100010 n
b100010 q
b100010 V"
b1010 J
b1010 K"
b1010 p"
b1001 F
b1001 3"
b1001 9"
b1001 M"
b1001 o"
b1000 G
b1000 4"
b1000 L"
b101000000100000 E
b101000000100000 ""
b101000000100000 N"
b1001010100101100000100000 C
b1001010100101100000100000 R"
b10110000010110100 ]
b10110000010110100 $"
b10110000010110100 h"
b110100 B
b110100 &"
b110100 S"
b111000 8
b111000 P"
b111000 i"
b111000 n"
b110100 9
b110100 T"
b110100 l"
b110100 m"
b10101100000000000000000000000000 @
b10101100000000000000000000000000 Q"
b10101100000000000000000000000000 U"
b1101 ^"
1+
1!
#170
0!
